…
Another thing we note is that there are multiple probes that map to a
specific gene. In a real life analysis workflow, there are multiple ways
to deal with this. Some popular options include picking the probe with
the highest expression, or taking the mean/median of all probes’
expression. For simplicity, we will use summarize() to take the mean of
each probe’s expression.

``` r
(new_melted_data <- melted_data %>% 
    group_by(Sample, IDENTIFIER) %>% 
    summarize(Count = mean(value)))
```

    ## # A tibble: 279,905 x 3
    ## # Groups:   Sample [17]
    ##    Sample   IDENTIFIER   Count
    ##    <fct>    <chr>        <dbl>
    ##  1 GSM11815 --Control   8139. 
    ##  2 GSM11815 222968_at    102. 
    ##  3 GSM11815 223641_at    200. 
    ##  4 GSM11815 224429_x_at 2385. 
    ##  5 GSM11815 224438_at     32.1
    ##  6 GSM11815 225714_s_at  291. 
    ##  7 GSM11815 225934_at    284. 
    ##  8 GSM11815 226014_at     66.3
    ##  9 GSM11815 226061_s_at   45.1
    ## 10 GSM11815 226138_s_at   23.3
    ## # ... with 279,895 more rows
…
In this case, we want to identify the genes that are differentially
expressed between the normal and RCC samples. We will use summarize() to
perform a t-test for each gene.

``` r
full_data %>% 
    group_by(hgnc_symbol) %>% 
    summarize( pvalue = t.test(Count ~ disease)$p.value)
```

    ## # A tibble: 9,236 x 2
    ##    hgnc_symbol pvalue
    ##    <chr>        <dbl>
    ##  1 A1BG        0.708 
    ##  2 A1BG-AS1    0.0366
    ##  3 A1CF        0.132 
    ##  4 A2MP1       0.0245
    ##  5 AADACL2     0.143 
    ##  6 AADAT       0.0304
    ##  7 AAGAB       0.469 
    ##  8 AAK1        0.0229
    ##  9 AARS2       0.0416
    ## 10 AASDH       0.0743
    ## # ... with 9,226 more rows
…
