…
The first is the **expression matrix**, containing the sample IDs and their corresponding gene expression profiles. Essentially, each column is a different sample (a tissue, under some treatment, during some developmental stage, etc) and each row is a gene (or a probe). The expression values for all of the genes in a single column collectively constitute the gene expression profile of the sample represented by that column.

Here, we load the expression matrix. We've printed out a small subset of the dataset so you have an idea what it looks like.

``` r
expressionMatrix <- read.table("expression_data/GSE4051_data.tsv", stringsAsFactors = FALSE, sep = "\t", 
                                                             quote = "")
expressionMatrix <- expressionMatrix %>% rownames_to_column("gene") # rownames deprecated in tibbles and are hard to work with in ggplot
expressionMatrix <- expressionMatrix %>% as_tibble() # turn into tibble for pretty printing

expressionMatrix
```

    ## # A tibble: 29,949 x 40
    ##    gene        Sample_20 Sample_21 Sample_22 Sample_23 Sample_16 Sample_17
    ##    <chr>           <dbl>     <dbl>     <dbl>     <dbl>     <dbl>     <dbl>
    ##  1 1415670_at       7.24      7.41      7.17      7.07      7.38      7.34
    ##  2 1415671_at       9.48     10.0       9.85     10.1       7.64     10.0 
    ##  3 1415672_at      10.0      10.0       9.91      9.91      8.42     10.2 
    ##  4 1415673_at       8.36      8.37      8.40      8.49      8.36      8.37
    ##  5 1415674_a_…      8.59      8.62      8.52      8.64      8.51      8.89
    ##  6 1415675_at       9.59      9.72      9.71      9.70      9.66      9.61
    ##  7 1415676_a_…      9.68     10.4       9.87     10.2       8.04     10.0 
    ##  8 1415677_at       7.24      7.90      7.48      7.49      7.34      7.34
    ##  9 1415678_at      11.7      11.5      11.5      11.6      10.5      11.8 
    ## 10 1415679_at       9.21     10.1       9.82      9.92      8.22      9.60
    ## # ... with 29,939 more rows, and 33 more variables: Sample_6 <dbl>,
    ## #   Sample_24 <dbl>, Sample_25 <dbl>, Sample_26 <dbl>, Sample_27 <dbl>,
    ## #   Sample_14 <dbl>, Sample_3 <dbl>, Sample_5 <dbl>, Sample_8 <dbl>,
    ## #   Sample_28 <dbl>, Sample_29 <dbl>, Sample_30 <dbl>, Sample_31 <dbl>,
    ## #   Sample_1 <dbl>, Sample_10 <dbl>, Sample_4 <dbl>, Sample_7 <dbl>,
    ## #   Sample_32 <dbl>, Sample_33 <dbl>, Sample_34 <dbl>, Sample_35 <dbl>,
    ## #   Sample_13 <dbl>, Sample_15 <dbl>, Sample_18 <dbl>, Sample_19 <dbl>,
    ## #   Sample_36 <dbl>, Sample_37 <dbl>, Sample_38 <dbl>, Sample_39 <dbl>,
    ## #   Sample_11 <dbl>, Sample_12 <dbl>, Sample_2 <dbl>, Sample_9 <dbl>
…
``` r
samplesMetadata <- read.table("expression_data/GSE4051_design.tsv", 
                                                            sep = "\t",
                              header = TRUE, # set header = TRUE to use the first row of the data as column names
                              stringsAsFactors = FALSE) # set stringAsFactors to avoid setting everything as factors, we can control that ourselves

samplesMetadata <- samplesMetadata %>% as_tibble() # turn into tibble for pretty printing

# define our own column names for samples metadata for clarity
names(samplesMetadata) <- c("sample_id", "sample_number", "dev_stage", "genotype")

samplesMetadata
```

    ## # A tibble: 39 x 4
    ##    sample_id sample_number dev_stage genotype
    ##    <chr>             <int> <chr>     <chr>   
    ##  1 Sample_20            20 E16       wt      
    ##  2 Sample_21            21 E16       wt      
    ##  3 Sample_22            22 E16       wt      
    ##  4 Sample_23            23 E16       wt      
    ##  5 Sample_16            16 E16       NrlKO   
    ##  6 Sample_17            17 E16       NrlKO   
    ##  7 Sample_6              6 E16       NrlKO   
    ##  8 Sample_24            24 P2        wt      
    ##  9 Sample_25            25 P2        wt      
    ## 10 Sample_26            26 P2        wt      
    ## # ... with 29 more rows
…
    ##  [1] wt    wt    wt    wt    NrlKO NrlKO NrlKO wt    wt    wt    wt   
    ## [12] NrlKO NrlKO NrlKO NrlKO wt    wt    wt    wt    NrlKO NrlKO NrlKO
    ## [23] NrlKO wt    wt    wt    wt    NrlKO NrlKO NrlKO NrlKO wt    wt   
    ## [34] wt    wt    NrlKO NrlKO NrlKO NrlKO
    ## Levels: wt NrlKO

``` r
samplesMetadata # columns dev_stage and genotype are now type factor
```

    ## # A tibble: 39 x 4
    ##    sample_id sample_number dev_stage genotype
    ##    <chr>             <int> <fct>     <fct>   
    ##  1 Sample_20            20 E16       wt      
    ##  2 Sample_21            21 E16       wt      
    ##  3 Sample_22            22 E16       wt      
    ##  4 Sample_23            23 E16       wt      
    ##  5 Sample_16            16 E16       NrlKO   
    ##  6 Sample_17            17 E16       NrlKO   
    ##  7 Sample_6              6 E16       NrlKO   
    ##  8 Sample_24            24 P2        wt      
    ##  9 Sample_25            25 P2        wt      
    ## 10 Sample_26            26 P2        wt      
    ## # ... with 29 more rows
…
expressionDataForGene
```

    ## # A tibble: 78 x 3
    ##    sample_id gene       expression
    ##    <chr>     <fct>           <dbl>
    ##  1 Sample_20 1416119_at      10.6 
    ##  2 Sample_21 1416119_at      11.0 
    ##  3 Sample_22 1416119_at      10.8 
    ##  4 Sample_23 1416119_at      10.9 
    ##  5 Sample_16 1416119_at       9.20
    ##  6 Sample_17 1416119_at      11.0 
    ##  7 Sample_6  1416119_at      10.9 
    ##  8 Sample_24 1416119_at      10.4 
    ##  9 Sample_25 1416119_at      10.6 
    ## 10 Sample_26 1416119_at      10.2 
    ## # ... with 68 more rows
…
``` r
# now transformed
expressionDataForGene <- transformGeneExpressionMatrix(expressionDataForGene)
expressionDataForGene
```

    ## # A tibble: 78 x 3
    ##    sample_id gene       expression
    ##    <chr>     <fct>           <dbl>
    ##  1 Sample_20 1416119_at      10.6 
    ##  2 Sample_21 1416119_at      11.0 
    ##  3 Sample_22 1416119_at      10.8 
    ##  4 Sample_23 1416119_at      10.9 
    ##  5 Sample_16 1416119_at       9.20
    ##  6 Sample_17 1416119_at      11.0 
    ##  7 Sample_6  1416119_at      10.9 
    ##  8 Sample_24 1416119_at      10.4 
    ##  9 Sample_25 1416119_at      10.6 
    ## 10 Sample_26 1416119_at      10.2 
    ## # ... with 68 more rows

Yay! Now, we integrate the samples metadata by doing a join.

The left\_join() function ensures that all rows in the first data frame are retained while unmatched rows in the second data frame are dropped. Feel free to run ?join() in the R-Studio console to learn more as well as other variations of the function such as right\_join(), inner\_join(), full\_join(), etc.

``` r
expressionDataForGene <- expressionDataForGene %>% left_join(samplesMetadata, by = "sample_id")

expressionDataForGene
```

    ## # A tibble: 78 x 6
    ##    sample_id gene       expression sample_number dev_stage genotype
    ##    <chr>     <fct>           <dbl>         <int> <fct>     <fct>   
    ##  1 Sample_20 1416119_at      10.6             20 E16       wt      
    ##  2 Sample_21 1416119_at      11.0             21 E16       wt      
    ##  3 Sample_22 1416119_at      10.8             22 E16       wt      
    ##  4 Sample_23 1416119_at      10.9             23 E16       wt      
    ##  5 Sample_16 1416119_at       9.20            16 E16       NrlKO   
    ##  6 Sample_17 1416119_at      11.0             17 E16       NrlKO   
    ##  7 Sample_6  1416119_at      10.9              6 E16       NrlKO   
    ##  8 Sample_24 1416119_at      10.4             24 P2        wt      
    ##  9 Sample_25 1416119_at      10.6             25 P2        wt      
    ## 10 Sample_26 1416119_at      10.2             26 P2        wt      
    ## # ... with 68 more rows
…
# use the wildTypeSamples to pull out the wildtype expression data from the expression matrix
wildTypeExpressionMatrix <- getExpressionForSamples(wildTypeSamples$sample_id, expressionMatrix)

wildTypeExpressionMatrix %>% as_tibble() # reminder of what the expression matrix looks like
```

    ## # A tibble: 29,949 x 20
    ##    Sample_20 Sample_21 Sample_22 Sample_23 Sample_24 Sample_25 Sample_26
    ##  *     <dbl>     <dbl>     <dbl>     <dbl>     <dbl>     <dbl>     <dbl>
    ##  1      7.24      7.41      7.17      7.07      7.11      7.19      7.18
    ##  2      9.48     10.0       9.85     10.1       9.75      9.16      9.49
    ##  3     10.0      10.0       9.91      9.91      9.39     10.1       9.41
    ##  4      8.36      8.37      8.40      8.49      8.37      8.20      8.73
    ##  5      8.59      8.62      8.52      8.64      8.36      8.50      8.39
    ##  6      9.59      9.72      9.71      9.70      9.64      9.65      9.87
    ##  7      9.68     10.4       9.87     10.2       9.15      8.18      9.10
    ##  8      7.24      7.90      7.48      7.49      7.19      7.23      7.06
    ##  9     11.7      11.5      11.5      11.6      11.4      11.3      11.8 
    ## 10      9.21     10.1       9.82      9.92      9.30      9.94      8.77
    ## # ... with 29,939 more rows, and 13 more variables: Sample_27 <dbl>,
    ## #   Sample_28 <dbl>, Sample_29 <dbl>, Sample_30 <dbl>, Sample_31 <dbl>,
    ## #   Sample_32 <dbl>, Sample_33 <dbl>, Sample_34 <dbl>, Sample_35 <dbl>,
    ## #   Sample_36 <dbl>, Sample_37 <dbl>, Sample_38 <dbl>, Sample_39 <dbl>
…
    ## Joining, by = "sample_id"

``` r
topGenesExpressionData # reminder of formatted expression data looks like - for easy graphing
```

    ## # A tibble: 120 x 6
    ##    sample_id gene       expression sample_number dev_stage genotype
    ##    <chr>     <fct>           <dbl>         <int> <fct>     <fct>   
    ##  1 Sample_20 1416041_at       8.48            20 E16       wt      
    ##  2 Sample_21 1416041_at       7.74            21 E16       wt      
    ##  3 Sample_22 1416041_at       8.29            22 E16       wt      
    ##  4 Sample_23 1416041_at       8.15            23 E16       wt      
    ##  5 Sample_24 1416041_at       8.17            24 P2        wt      
    ##  6 Sample_25 1416041_at       8.66            25 P2        wt      
    ##  7 Sample_26 1416041_at       8.11            26 P2        wt      
    ##  8 Sample_27 1416041_at       8.35            27 P2        wt      
    ##  9 Sample_28 1416041_at       8.40            28 P6        wt      
    ## 10 Sample_29 1416041_at       8.37            29 P6        wt      
    ## # ... with 110 more rows
…
``` r
# reminder of what expression matrix looks like
expressionMatrix
```

    ## # A tibble: 29,949 x 40
    ##    gene        Sample_20 Sample_21 Sample_22 Sample_23 Sample_16 Sample_17
    ##    <chr>           <dbl>     <dbl>     <dbl>     <dbl>     <dbl>     <dbl>
    ##  1 1415670_at       7.24      7.41      7.17      7.07      7.38      7.34
    ##  2 1415671_at       9.48     10.0       9.85     10.1       7.64     10.0 
    ##  3 1415672_at      10.0      10.0       9.91      9.91      8.42     10.2 
    ##  4 1415673_at       8.36      8.37      8.40      8.49      8.36      8.37
    ##  5 1415674_a_…      8.59      8.62      8.52      8.64      8.51      8.89
    ##  6 1415675_at       9.59      9.72      9.71      9.70      9.66      9.61
    ##  7 1415676_a_…      9.68     10.4       9.87     10.2       8.04     10.0 
    ##  8 1415677_at       7.24      7.90      7.48      7.49      7.34      7.34
    ##  9 1415678_at      11.7      11.5      11.5      11.6      10.5      11.8 
    ## 10 1415679_at       9.21     10.1       9.82      9.92      8.22      9.60
    ## # ... with 29,939 more rows, and 33 more variables: Sample_6 <dbl>,
    ## #   Sample_24 <dbl>, Sample_25 <dbl>, Sample_26 <dbl>, Sample_27 <dbl>,
    ## #   Sample_14 <dbl>, Sample_3 <dbl>, Sample_5 <dbl>, Sample_8 <dbl>,
    ## #   Sample_28 <dbl>, Sample_29 <dbl>, Sample_30 <dbl>, Sample_31 <dbl>,
    ## #   Sample_1 <dbl>, Sample_10 <dbl>, Sample_4 <dbl>, Sample_7 <dbl>,
    ## #   Sample_32 <dbl>, Sample_33 <dbl>, Sample_34 <dbl>, Sample_35 <dbl>,
    ## #   Sample_13 <dbl>, Sample_15 <dbl>, Sample_18 <dbl>, Sample_19 <dbl>,
    ## #   Sample_36 <dbl>, Sample_37 <dbl>, Sample_38 <dbl>, Sample_39 <dbl>,
    ## #   Sample_11 <dbl>, Sample_12 <dbl>, Sample_2 <dbl>, Sample_9 <dbl>
…
