…
set.seed(2)
positiveGeneRanks <- c(sample(1:10, 8, replace = FALSE), sample(15:25, 4, replace = FALSE))
negativeGeneRanks <- 1:26 %>% setdiff(positiveGeneRanks)

(rankedGeneList <- tibble(gene = c(fictionalGeneSet, negativeGenes),
                    rank = c(positiveGeneRanks, negativeGeneRanks)) %>% 
  arrange(rank))
```

    ## Warning: package 'bindrcpp' was built under R version 3.4.4

    ## # A tibble: 26 x 2
    ##    gene    rank
    ##    <chr>  <int>
    ##  1 gene_g     1
    ##  2 gene_a     2
    ##  3 gene_h     3
    ##  4 gene_m     4
    ##  5 gene_c     5
    ##  6 gene_e     6
    ##  7 gene_b     7
    ##  8 gene_f     8
    ##  9 gene_n     9
    ## 10 gene_d    10
    ## # ... with 16 more rows
…
To save you time, we have done the differential expression analysis for you, so that you can focus on the enrichment analysis. The resulting gene list is here. It has two columns: **1. gene** and **2. logFC**. I have stripped out the p-values among other irrelevant information. We are using logFC here for the sake of demonstrating multifunctionality correlation. Normally, you might use p-values as your scores.

Let's import this dataset and take a look inside:

``` r
(geneList <- read_csv("data/ranked_gene_list.csv"))
```

    ## Parsed with column specification:
    ## cols(
    ##   gene = col_character(),
    ##   logFC = col_double()
    ## )

    ## # A tibble: 17,421 x 2
    ##    gene       logFC
    ##    <chr>      <dbl>
    ##  1 A1BG     -4.57  
    ##  2 A1BG-AS1  0.190 
    ##  3 A1CF     -3.15  
    ##  4 A2M      -1.08  
    ##  5 A2M-AS1   0.760 
    ##  6 A4GALT   -0.131 
    ##  7 A4GNT     0.169 
    ##  8 AA06      0.0212
    ##  9 AAAS     -0.192 
    ## 10 AACS      0.345 
    ## # ... with 17,411 more rows
…
To make all of this more real, let's look back at our data. We have also provided a dataset that contains the multifunctional scores of most genes in the human genome. We can take a look at how much our gene scores correlate with multifunctionality.

Let's first import the multifunctionality scores dataset.

``` r
(mfScores <- read_csv("data/gene_multifunctionality_scores.csv"))
```

    ## Parsed with column specification:
    ## cols(
    ##   gene = col_character(),
    ##   MF.score = col_double()
    ## )

    ## # A tibble: 18,402 x 2
    ##    gene     MF.score
    ##    <chr>       <dbl>
    ##  1 MEF2C   0.000762 
    ##  2 MEF2A   0.000729 
    ##  3 OPA1    0.0000886
    ##  4 SLC25A4 0.000116 
    ##  5 TYMP    0.000159 
    ##  6 LONP1   0.000357 
    ##  7 MPV17   0.0000162
    ##  8 MGME1   0.0000578
    ##  9 PIF1    0.000347 
    ## 10 MRPL17  0.0000136
    ## # ... with 18,392 more rows

The dataset has two columns: 1. gene, and 2. a multifunctional score for each gene.

Now let's see if our geneList has some multifunctional bias.

``` r
(mergedData <- geneList %>% inner_join(mfScores, by = "gene"))
```

    ## # A tibble: 14,104 x 3
    ##    gene    logFC    MF.score
    ##    <chr>   <dbl>       <dbl>
    ##  1 A1BG   -4.57  0.000000799
    ##  2 A1CF   -3.15  0.0000626  
    ##  3 A2M    -1.08  0.000175   
    ##  4 A4GALT -0.131 0.000162   
    ##  5 A4GNT   0.169 0.00000587 
    ##  6 AAAS   -0.192 0.0000200  
    ##  7 AACS    0.345 0.000148   
    ##  8 AADAC  -2.24  0.0000320  
    ##  9 AADAT  -2.06  0.000244   
    ## 10 AAGAB   0.313 0.000000671
    ## # ... with 14,094 more rows
…
**ouptut$result** is a tibble containing the list of gene sets (in our case, GO terms) analyzed as well as their IDs, scores, among other information.

**output$details** contains other information about the enrichment analysis such as correlation with multifunctionality, number of sampling iterations, multiple testing adjustment method used, etc.

Take a moment to examine the outputs you got!

### Examining the results

Now, let's take a look at output$result, which is probably what you care about the most :P.

``` r
enrichmentResult$results %>% arrange(MFPvalue)
```

    ## # A tibble: 3,152 x 12
    ##    Name  ID    NumProbes NumGenes RawScore     Pval CorrectedPvalue
    ##    <chr> <chr>     <int>    <int>    <dbl>    <dbl>           <dbl>
    ##  1 lymp~ GO:0~       103      103   0.0430 1.00e-12  0.00000000303 
    ##  2 humo~ GO:0~        35       35   0.0735 1.00e-12  0.00000000151 
    ##  3 adap~ GO:0~       117      117   0.0407 1.00e-12  0.00000000101 
    ##  4 acut~ GO:0~        58       58   0.0392 1.00e-12  0.000000000756
    ##  5 plat~ GO:0~       122      122   0.0340 1.00e-12  0.000000000605
    ##  6 regu~ GO:0~        65       65   0.0371 1.00e-12  0.000000000504
    ##  7 regu~ GO:0~        44       44   0.0499 1.00e-12  0.000000000432
    ##  8 acut~ GO:0~        31       31   0.0522 1.00e-12  0.000000000336
    ##  9 comp~ GO:0~        46       46   0.0742 1.00e-12  0.000000000303
    ## 10 comp~ GO:0~        32       32   0.0769 1.00e-12  0.000000000275
    ## # ... with 3,142 more rows, and 5 more variables: MFPvalue <dbl>,
    ## #   CorrectedMFPvalue <dbl>, Multifunctionality <dbl>, `Same as` <chr>,
    ## #   GeneMembers <chr>
…
